{
  "pageMeta": [
    {
      "page": 1,
      "totalElements": 1121,
      "totalPages": 3,
      "size": 500,
      "count": 500
    },
    {
      "page": 2,
      "totalElements": 1121,
      "totalPages": 3,
      "size": 500,
      "count": 500
    },
    {
      "page": 3,
      "totalElements": 1121,
      "totalPages": 3,
      "size": 500,
      "count": 121
    }
  ],
  "candidate_count": 2,
  "candidates": [
    {
      "target_keys": [
        "flower-resin-50g"
      ],
      "originProductNo": 13398873235,
      "search": {
        "originProductNo": 13398873235,
        "channelProducts": [
          {
            "channelProductNo": 13457949160,
            "name": "꽃레진/50g (실리콘레진)",
            "statusType": "SALE",
            "display": "ON",
            "stockQuantity": 998,
            "salePrice": 2200,
            "modifiedDate": "2026-04-27T14:19:58.032+09:00"
          }
        ]
      },
      "detailStatusCode": 200,
      "detail": {
        "originProduct": {
          "statusType": "SALE",
          "saleType": "NEW",
          "leafCategoryId": "50003465",
          "name": "꽃레진/50g (실리콘레진)",
          "detailContent": "<!-- [OPENEDITOR] --><p align=\"center\" style=\"margin: 0px; text-align: center;\"><img src=\"http://jewoo.img4.kr/2020/resin/silliconresin1.jpg\" /><br /></p>",
          "images": {
            "representativeImage": {
              "url": "https://shop-phinf.pstatic.net/20260427_24/1777266745420VAVCt_JPEG/92528080469482726_1661598687.jpg"
            },
            "optionalImages": []
          },
          "salePrice": 2200,
          "stockQuantity": 998,
          "deliveryInfo": {
            "deliveryType": "DELIVERY",
            "deliveryAttributeType": "NORMAL",
            "deliveryCompany": "HANJIN",
            "deliveryBundleGroupUsable": true,
            "deliveryBundleGroupId": 3154053,
            "deliveryFee": {
              "deliveryFeeType": "CONDITIONAL_FREE",
              "baseFee": 3000,
              "freeConditionalAmount": 80000,
              "deliveryFeePayType": "PREPAID"
            },
            "claimDeliveryInfo": {
              "returnDeliveryCompanyPriorityType": "PRIMARY",
              "returnDeliveryFee": 3000,
              "exchangeDeliveryFee": 6000,
              "shippingAddressId": 1189117,
              "returnAddressId": 1189117,
              "freeReturnInsuranceYn": false
            },
            "installationFee": false,
            "customProductAfterOrderYn": false
          },
          "detailAttribute": {
            "naverShoppingSearchInfo": {
              "manufacturerName": "프레스코21협력업체",
              "brandId": 4205192,
              "brandName": "프레스코21",
              "catalogMatchingYn": false
            },
            "afterServiceInfo": {
              "afterServiceTelephoneNumber": "02-403-5007",
              "afterServiceGuideContent": "교환·반품(청약철회) 및 A/S 안내  프레스코21은 「전자상거래 등에서의 소비자보호에 관한 법률」 및 공정거래위원회 고시 「소비자분쟁해결기준」을 준수합니다. 고객님의 권리를 보호하기 위해 아래 기준에 따라 교환·반품 및 A/S를 진행합니다.  1. 교환·반품(청약철회) 안내  (근거: 전자상거래법 제17조 제1항, 제18조 제9항)  상품을 공급받은 날로부터 7일 이내에 교환 또는 반품(청약철회)을 신청할 수 있습니다.  상품의 하자, 오배송, 파손 등의 경우에는 프레스코21이 왕복 배송비를 부담하며 확인 후 동일 상품으로 교환해드립니다.  단순 변심, 색상·규격 변경 등 소비자 사유의 교환·반품은 7일 이내 가능하나, 왕복 배송비는 소비자 부담입니다.  교환·반품은 상품 및 포장(라벨, 봉투 등)이 훼손되지 않은 상태여야 합니다.  2. 청약철회 제한 사유  (근거: 전자상거래법 제17조 제2항, 시행령 제21조)  다음의 경우에는 청약철회(교환·반품)가 제한됩니다.  소비자에게 책임 있는 사유로 재화 등이 멸실 또는 훼손된 경우  소비자의 사용 또는 일부 소비로 상품의 가치가 현저히 감소한 경우  복제가 가능한 상품의 포장이 훼손된 경우  주문제작 상품, 개별 포장된 압화 재료, 칼라액, 풀한지(필름지) 등 소모성 제품  그 밖에 「전자상거래법 시행령」 제21조 각 호에 해당하는 경우  3. 제품 특성 안내  프레스코21의 압화 및 공예 재료는 공예적 특성이 강한 상품으로, 완성 결과물은 개인의 숙련도와 작업 환경에 따라 차이가 발생할 수 있습니다.  이로 인한 결과물 차이는 제품 불량에 해당하지 않습니다.  4. A/S(보증) 안내  (근거: 전자상거래법 제20조)  전기·기계 제품류의 경우, 구매일로부터 1년간 무상 A/S를 제공합니다.  단, 소비자 과실(충격, 낙하, 임의 분해, 비정상 사용 등)로 인한 손상은 제외됩니다.  보증기간 경과 또는 유상수리 시에는 별도 비용이 청구될 수 있습니다.  5. 문의 및 반품 주소  (근거: 전자상거래법 제13조 제2항 제8호)  전화: 02-403-4012 (평일 10:00~17:00 / 점심 12:30~13:30)  이메일: pressco5755@naver.com  반품 주소: (우)05807 서울특별시 송파구 송이로 15길 33, 가락2차쌍용상가 201호 (프레스코21 고객센터 앞)"
            },
            "originAreaInfo": {
              "originAreaCode": "03",
              "content": "상세설명에 표시",
              "plural": false
            },
            "optionInfo": {
              "simpleOptionSortType": "CREATE",
              "optionSimple": [],
              "optionCustom": [],
              "optionCombinationSortType": "CREATE",
              "standardOptionGroups": [],
              "optionStandards": [],
              "useStockManagement": true,
              "optionDeliveryAttributes": []
            },
            "purchaseReviewInfo": {
              "purchaseReviewExposure": true
            },
            "taxType": "TAX",
            "certificationTargetExcludeContent": {
              "kcCertifiedProductExclusionYn": "TRUE"
            },
            "sellerCommentUsable": false,
            "minorPurchasable": true,
            "productInfoProvidedNotice": {
              "productInfoProvidedNoticeType": "ETC",
              "etc": {
                "returnCostReason": "0",
                "noRefundReason": "0",
                "qualityAssuranceStandard": "0",
                "compensationProcedure": "0",
                "troubleShootingContents": "0",
                "itemName": "상세페이지참조",
                "modelName": "상세페이지참조",
                "certificateDetails": "상세페이지참조",
                "manufacturer": "상세페이지참조",
                "afterServiceDirector": "02-403-5007"
              }
            },
            "itselfProductionProductYn": false,
            "seoInfo": {
              "sellerTags": []
            }
          },
          "customerBenefit": {}
        },
        "smartstoreChannelProduct": {
          "storeKeepExclusiveProduct": false,
          "naverShoppingRegistration": true,
          "channelProductDisplayStatusType": "ON"
        }
      }
    },
    {
      "target_keys": [
        "habarium-led-wood-lamp"
      ],
      "originProductNo": 10916662314,
      "search": {
        "originProductNo": 10916662314,
        "channelProducts": [
          {
            "channelProductNo": 10968547109,
            "name": "하바리움 원목 무드등 LED 코스터 원목 받침대",
            "statusType": "SALE",
            "display": "ON",
            "stockQuantity": 3976,
            "salePrice": 5000,
            "modifiedDate": "2026-03-25T17:32:30.437+09:00"
          }
        ]
      },
      "detailStatusCode": 200,
      "detail": {
        "originProduct": {
          "statusType": "SALE",
          "saleType": "NEW",
          "leafCategoryId": "50001807",
          "name": "하바리움 원목 무드등 LED 코스터 원목 받침대",
          "detailContent": "<div class=\"se-viewer se-theme-default\" lang=\"ko-KR\">\n    <!-- SE_DOC_HEADER_START -->\n    <!--@CONTENTS_HEADER-->\n    <!-- SE_DOC_HEADER_END -->\n    <div class=\"se-main-container\">\n                <div class=\"se-component se-image se-l-default\" id=\"SE-97de9a94-65fc-4d84-8514-b8b70ab2632d\">\n                    <div class=\"se-component-content se-component-content-extend\">\n                        <div class=\"se-section se-section-image se-l-default se-section-align-\">\n                                <div class=\"se-module se-module-image\" style=\"\">\n                                    <a class=\"se-module-image-link __se_image_link __se_link\" style=\"\" onclick=\"return false;\" data-linktype=\"img\" data-linkdata=\"{&quot;id&quot;:&quot;SE-97de9a94-65fc-4d84-8514-b8b70ab2632d&quot;,&quot;src&quot;:&quot;https://shop-phinf.pstatic.net/20251118_36/1763446819611svLC8_JPEG/%EC%9B%90%EB%AA%A9%EB%AC%B4%EB%93%9C%EB%93%B1.jpg&quot;,&quot;originalWidth&quot;:&quot;860&quot;,&quot;originalHeight&quot;:&quot;8500&quot;,&quot;linkUse&quot;:&quot;false&quot;,&quot;link&quot;:&quot;&quot;,&quot;fileSize&quot;:&quot;1871236&quot;}\">\n                                        <img src=\"https://shop-phinf.pstatic.net/20251118_36/1763446819611svLC8_JPEG/%EC%9B%90%EB%AA%A9%EB%AC%B4%EB%93%9C%EB%93%B1.jpg\" alt=\"\" class=\"se-image-resource\">\n                                    </a>\n                                </div>\n                        </div>\n                    </div>\n                    <script type=\"text/data\" class=\"__se_module_data\" data-module-v2=\"{&quot;type&quot;: &quot;v2_image&quot;, &quot;id&quot;: &quot;SE-97de9a94-65fc-4d84-8514-b8b70ab2632d&quot;, &quot;data&quot;: {&quot;ctype&quot;: &quot;image&quot;, &quot;ai&quot;: &quot;false&quot;, &quot;fileSize&quot;: &quot;1871236&quot; }}\"></script>\n                </div>\n                <div class=\"se-component se-text se-l-default\" id=\"SE-d230eee9-ee8b-4287-bcc0-a84e752b4b37\">\n                    <div class=\"se-component-content\">\n                        <div class=\"se-section se-section-text se-l-default\">\n                            <div class=\"se-module se-module-text\">\n                                    <!-- SE-TEXT { --><p class=\"se-text-paragraph se-text-paragraph-align- \" style=\"\" id=\"SE-eaf2950d-5935-492d-af09-32a8989946a0\"><span style=\"\" class=\"se-fs- se-ff-   \" id=\"SE-9beef3af-0883-4f5c-842a-3fd7eb21d1f4\">​</span></p><!-- } SE-TEXT -->\n                            </div>\n                        </div>\n                    </div>\n                    <script type=\"text/data\" class=\"__se_module_data\" data-module-v2=\"{&quot;type&quot;: &quot;v2_text&quot;, &quot;id&quot;: &quot;SE-d230eee9-ee8b-4287-bcc0-a84e752b4b37&quot;, &quot;data&quot;: {&quot;ctype&quot;: &quot;text&quot;  }}\"></script>\n                </div>    </div>\n</div>\n",
          "images": {
            "representativeImage": {
              "url": "https://shop-phinf.pstatic.net/20251118_272/1763446808561rUT37_JPEG/97579693946446334_546616301.jpg"
            },
            "optionalImages": []
          },
          "salePrice": 5000,
          "stockQuantity": 3976,
          "deliveryInfo": {
            "deliveryType": "DELIVERY",
            "deliveryAttributeType": "NORMAL",
            "deliveryCompany": "HANJIN",
            "deliveryBundleGroupUsable": true,
            "deliveryBundleGroupId": 3154053,
            "deliveryFee": {
              "deliveryFeeType": "CONDITIONAL_FREE",
              "baseFee": 3000,
              "freeConditionalAmount": 80000,
              "deliveryFeePayType": "PREPAID"
            },
            "claimDeliveryInfo": {
              "returnDeliveryCompanyPriorityType": "PRIMARY",
              "returnDeliveryFee": 3000,
              "exchangeDeliveryFee": 6000,
              "shippingAddressId": 1189117,
              "returnAddressId": 1189117,
              "freeReturnInsuranceYn": false
            },
            "installationFee": false,
            "customProductAfterOrderYn": false
          },
          "detailAttribute": {
            "naverShoppingSearchInfo": {
              "manufacturerName": "프레스코21협력업체",
              "brandId": 4205192,
              "brandName": "프레스코21",
              "catalogMatchingYn": false
            },
            "afterServiceInfo": {
              "afterServiceTelephoneNumber": "02-403-4012",
              "afterServiceGuideContent": "교환·반품(청약철회) 및 A/S 안내  프레스코21은 「전자상거래 등에서의 소비자보호에 관한 법률」 및 공정거래위원회 고시 「소비자분쟁해결기준」을 준수합니다. 고객님의 권리를 보호하기 위해 아래 기준에 따라 교환·반품 및 A/S를 진행합니다.  1. 교환·반품(청약철회) 안내  (근거: 전자상거래법 제17조 제1항, 제18조 제9항)  상품을 공급받은 날로부터 7일 이내에 교환 또는 반품(청약철회)을 신청할 수 있습니다.  상품의 하자, 오배송, 파손 등의 경우에는 프레스코21이 왕복 배송비를 부담하며 확인 후 동일 상품으로 교환해드립니다.  단순 변심, 색상·규격 변경 등 소비자 사유의 교환·반품은 7일 이내 가능하나, 왕복 배송비는 소비자 부담입니다.  교환·반품은 상품 및 포장(라벨, 봉투 등)이 훼손되지 않은 상태여야 합니다.  2. 청약철회 제한 사유  (근거: 전자상거래법 제17조 제2항, 시행령 제21조)  다음의 경우에는 청약철회(교환·반품)가 제한됩니다.  소비자에게 책임 있는 사유로 재화 등이 멸실 또는 훼손된 경우  소비자의 사용 또는 일부 소비로 상품의 가치가 현저히 감소한 경우  복제가 가능한 상품의 포장이 훼손된 경우  주문제작 상품, 개별 포장된 압화 재료, 칼라액, 풀한지(필름지) 등 소모성 제품  그 밖에 「전자상거래법 시행령」 제21조 각 호에 해당하는 경우  3. 제품 특성 안내  프레스코21의 압화 및 공예 재료는 공예적 특성이 강한 상품으로, 완성 결과물은 개인의 숙련도와 작업 환경에 따라 차이가 발생할 수 있습니다.  이로 인한 결과물 차이는 제품 불량에 해당하지 않습니다.  4. A/S(보증) 안내  (근거: 전자상거래법 제20조)  전기·기계 제품류의 경우, 구매일로부터 1년간 무상 A/S를 제공합니다.  단, 소비자 과실(충격, 낙하, 임의 분해, 비정상 사용 등)로 인한 손상은 제외됩니다.  보증기간 경과 또는 유상수리 시에는 별도 비용이 청구될 수 있습니다.  5. 문의 및 반품 주소  (근거: 전자상거래법 제13조 제2항 제8호)  전화: 02-403-4012 (평일 10:00~17:00 / 점심 12:30~13:30)  이메일: pressco5755@naver.com  반품 주소: (우)05807 서울특별시 송파구 송이로 15길 33, 가락2차쌍용상가 201호 (프레스코21 고객센터 앞)"
            },
            "originAreaInfo": {
              "originAreaCode": "03",
              "content": "상세설명에 표시",
              "plural": true
            },
            "optionInfo": {
              "simpleOptionSortType": "CREATE",
              "optionSimple": [],
              "optionCustom": [],
              "optionCombinationSortType": "CREATE",
              "optionCombinationGroupNames": {
                "optionGroupName1": "우드 무드등"
              },
              "optionCombinations": [
                {
                  "id": 44607343496,
                  "stockQuantity": 997,
                  "price": 0,
                  "usable": true,
                  "optionName1": "유선_소"
                },
                {
                  "id": 44607343498,
                  "stockQuantity": 994,
                  "price": 200,
                  "usable": true,
                  "optionName1": "유선_중"
                },
                {
                  "id": 44607343501,
                  "stockQuantity": 996,
                  "price": 400,
                  "usable": true,
                  "optionName1": "유선_대"
                },
                {
                  "id": 57143831930,
                  "stockQuantity": 989,
                  "price": 3900,
                  "usable": true,
                  "optionName1": "무선_기본형"
                }
              ],
              "standardOptionGroups": [],
              "optionStandards": [],
              "useStockManagement": true,
              "optionDeliveryAttributes": []
            },
            "purchaseReviewInfo": {
              "purchaseReviewExposure": true
            },
            "taxType": "TAX",
            "certificationTargetExcludeContent": {},
            "sellerCommentUsable": false,
            "minorPurchasable": true,
            "productInfoProvidedNotice": {
              "productInfoProvidedNoticeType": "ETC",
              "etc": {
                "returnCostReason": "0",
                "noRefundReason": "0",
                "qualityAssuranceStandard": "0",
                "compensationProcedure": "0",
                "troubleShootingContents": "0",
                "itemName": "상세페이지참조",
                "modelName": "상세페이지참조",
                "certificateDetails": "상세페이지참조",
                "manufacturer": "상세페이지참조",
                "afterServiceDirector": "02-403-5077"
              }
            },
            "productAttributes": [
              {
                "attributeSeq": 10018625,
                "attributeValueSeq": 10811099
              }
            ],
            "itselfProductionProductYn": false,
            "seoInfo": {
              "sellerTags": [
                {
                  "code": 81027,
                  "text": "프리저브드플라워"
                },
                {
                  "code": 452306,
                  "text": "프리저브드용액"
                },
                {
                  "code": 3313437,
                  "text": "프리저브드재료"
                },
                {
                  "code": 420454,
                  "text": "프리저브드디퓨저"
                },
                {
                  "code": 335284,
                  "text": "드라이플라워소품"
                },
                {
                  "code": 11514,
                  "text": "드라이플라워"
                },
                {
                  "code": 338825,
                  "text": "드라이플라워인테리어"
                },
                {
                  "code": 12403,
                  "text": "LED램프"
                },
                {
                  "code": 125744,
                  "text": "프리저브드꽃"
                },
                {
                  "code": 11672,
                  "text": "프리저브드"
                }
              ]
            }
          },
          "customerBenefit": {
            "immediateDiscountPolicy": {
              "discountMethod": {
                "value": 3000,
                "unitType": "WON"
              }
            }
          }
        },
        "smartstoreChannelProduct": {
          "storeKeepExclusiveProduct": false,
          "naverShoppingRegistration": true,
          "channelProductDisplayStatusType": "ON"
        }
      }
    }
  ]
}